The REMA (Reference Elevation Model of Antarctica, v2) Mosaic Index • remav2
…
Everything we need is in this index table.

library(remav2)
library(dplyr)
#> 
#> Attaching package: 'dplyr'
#> The following objects are masked from 'package:stats':
#> 
#>     filter, lag
#> The following objects are masked from 'package:base':
#> 
#>     intersect, setdiff, setequal, union
(index <- remav2_index())
#> # A tibble: 5,800 × 16
#>    dem_id        tile      xmin     xmax     ymin     ymax s3url data_…¹ num_c…²
#>    <chr>         <chr>    <dbl>    <dbl>    <dbl>    <dbl> <chr>   <dbl>   <int>
#>  1 41_40_2_2_2m… 41_40   949900  1000100  1049900  1100100 http… 0.87051      86
#>  2 41_40_2_1_2m… 41_40   899900   950100  1049900  1100100 http… 0.93290     148
#>  3 41_40_1_2_2m… 41_40   949900  1000100   999900  1050100 http… 0.89323     129
#>  4 41_40_1_1_2m… 41_40   899900   950100   999900  1050100 http… 0.88104      80
#>  5 18_23_2_1_2m… 18_23  -800100  -749900 -1250100 -1199900 http… 0.99238     147
#>  6 18_23_1_1_2m… 18_23  -800100  -749900 -1300100 -1249900 http… 0.78005      93
#>  7 18_23_1_2_2m… 18_23  -750100  -699900 -1300100 -1249900 http… 0.48723      86
#>  8 18_23_2_2_2m… 18_23  -750100  -699900 -1250100 -1199900 http… 0.95989     165
#>  9 29_14_1_1_2m… 29_14 -1700100 -1649900  -200100  -149900 http… 0.99462      76
#> 10 29_14_2_1_2m… 29_14 -1700100 -1649900  -150100   -99900 http… 0.98564      54
#> # … with 5,790 more rows, 7 more variables: cog_browse <chr>, cog_dem <chr>,
#> #   cog_count <chr>, cog_countmt <chr>, cog_mad <chr>, cog_maxdate <chr>,
#> #   cog_mindate <chr>, and abbreviated variable names ¹​data_percent,
#> #   ²​num_components
…
