REMA v2 Mosaic Index — remav2_index • remav2
…
    Examples

remav2_index()
#> # A tibble: 5,800 × 16
#>    dem_id    tile     xmin    xmax    ymin    ymax s3url data_…¹ num_c…² cog_b…³
#>    <chr>     <chr>   <dbl>   <dbl>   <dbl>   <dbl> <chr>   <dbl>   <int> <chr>  
#>  1 41_40_2_… 41_40  9.50e5  1.00e6  1.05e6  1.10e6 http…   0.871      86 /vsicu…
#>  2 41_40_2_… 41_40  9.00e5  9.50e5  1.05e6  1.10e6 http…   0.933     148 /vsicu…
#>  3 41_40_1_… 41_40  9.50e5  1.00e6  1.00e6  1.05e6 http…   0.893     129 /vsicu…
#>  4 41_40_1_… 41_40  9.00e5  9.50e5  1.00e6  1.05e6 http…   0.881      80 /vsicu…
#>  5 18_23_2_… 18_23 -8.00e5 -7.50e5 -1.25e6 -1.20e6 http…   0.992     147 /vsicu…
#>  6 18_23_1_… 18_23 -8.00e5 -7.50e5 -1.30e6 -1.25e6 http…   0.780      93 /vsicu…
#>  7 18_23_1_… 18_23 -7.50e5 -7.00e5 -1.30e6 -1.25e6 http…   0.487      86 /vsicu…
#>  8 18_23_2_… 18_23 -7.50e5 -7.00e5 -1.25e6 -1.20e6 http…   0.960     165 /vsicu…
#>  9 29_14_1_… 29_14 -1.70e6 -1.65e6 -2.00e5 -1.50e5 http…   0.995      76 /vsicu…
#> 10 29_14_2_… 29_14 -1.70e6 -1.65e6 -1.50e5 -9.99e4 http…   0.986      54 /vsicu…
#> # … with 5,790 more rows, 6 more variables: cog_dem <chr>, cog_count <chr>,
#> #   cog_countmt <chr>, cog_mad <chr>, cog_maxdate <chr>, cog_mindate <chr>, and
#> #   abbreviated variable names ¹​data_percent, ²​num_components, ³​cog_browse
…
